{
  "hosting": {
    "public": "public",
	"rewrite":[
{
"source" :"**",
"destination" :"/index.html"
}
],
    "ignore": [
      "firebase.json",
      "**/.*",
      "**/node_modules/**"
    ]
  }
}